[
    "0n-line.tv",
    "100dollars-seo.com",
    "12masterov.com",
    "1pamm.ru",
    "4webmasters.org",
    "5forex.ru",
    "76brighton.co.uk",
    "76brighton.com",
    "7makemoneyonline.com",
    "7zap.com",
    "abovetherivernc.com",
    "acads.net",
    "acunetix-referrer.com",
    "adcash.com",
    "adelly.bg",
    "adspart.com",
    "adventureparkcostarica.com",
    "adviceforum.info",
    "advokateg.co",
    "advokateg.com",
    "advokateg.ru",
    "affordablewebsitesandmobileapps.com",
    "afora.ru",
    "akuhni.by",
    "alessandraleone.com",
    "alfa9.com",
    "aliexpress.com",
    "allknow.info",
    "allnews.md",
    "allwomen.info",
    "alpharma.net",
    "altermix.ua",
    "amanda-porn.ga",
    "amt-k.ru",
    "anapa-inns.ru",
    "android-style.com",
    "anticrawler.org",
    "aosheng-tech.com",
    "arendakvartir.kz",
    "arkkivoltti.net",
    "artparquet.ru",
    "aruplighting.com",
    "audiobangout.com",
    "autovideobroadcast.com",
    "aviva-limoux.com",
    "avkzarabotok.com",
    "avkzarabotok.info",
    "azartclub.org",
    "bablonow.ru",
    "backgroundpictures.net",
    "baixar-musicas-gratis.com",
    "baladur.ru",
    "balitouroffice.com",
    "bbtec.net",
    "best-seo-offer.com",
    "best-seo-software.xyz",
    "best-seo-solution.com",
    "bestmobilityscooterstoday.com",
    "bestwebsitesawards.com",
    "bif-ru.info",
    "biglistofwebsites.com",
    "bioca.org",
    "biz.ua",
    "bizru.info",
    "bkns.vn",
    "blackhatworth.com",
    "blackle.com",
    "blogspot.com.au",
    "blogtotal.de",
    "blue-square.biz",
    "bluerobot.info",
    "boleznikogi.com",
    "bookmark4you.biz",
    "bookmark4you.com",
    "brakehawk.com",
    "break-the-chains.com",
    "bristolhostel.com",
    "bristolhotel.com",
    "brk-rti.ru",
    "brothers-smaller.ru",
    "burger-imperia.com",
    "buttons-for-website.com",
    "buttons-for-your-website.com",
    "buy-cheap-online.info",
    "buy-forum.ru",
    "buyantiviralwp.com",
    "buypharmacydrug.com",
    "bycontext.com",
    "callejondelpozo.es",
    "cartechnic.ru",
    "cbcseward.com",
    "cenokos.ru",
    "cenoval.ru",
    "cezartabac.ro",
    "cherrypointplace.ca",
    "cherubinimobili.it",
    "chinese-amezon.com",
    "ci.ua",
    "cityadspix.com",
    "civilwartheater.com",
    "clicksor.com",
    "clmforexeu.com",
    "co",
    "coderstate.com",
    "codysbbq.com",
    "com.biz",
    "com.ua",
    "conciergegroup.org",
    "connectikastudio.com",
    "constantaservice.net",
    "contextualyield.com",
    "covadhosting.biz",
    "dailyrank.net",
    "darodar.com",
    "demenageur.com",
    "depositfiles-porn.com",
    "depositfiles-porn.ga",
    "descargar-musica-gratis.net",
    "detskie-konstruktory.ru",
    "dipstar.org",
    "djekxa.ru",
    "dojki-hd.com",
    "domination.ml",
    "doska-vsem.ru",
    "dostavka-v-krym.com",
    "drupa.com",
    "e-buyeasy.com",
    "e-kwiaciarz.pl",
    "ecomp3.ru",
    "econom.co",
    "edakgfvwql.ru",
    "edelstahlschornstein-123.de",
    "egovaleo.it",
    "ekto.ee",
    "elitesportsadvisor.com",
    "elmifarhangi.com",
    "embedle.com",
    "erot.co",
    "escort-russian.com",
    "euromasterclass.ru",
    "europages.com.ru",
    "eurosamodelki.ru",
    "event-tracking.com",
    "extener.com",
    "extremez.net",
    "family1st.ca",
    "fbdownloader.com",
    "fbfreegifts.com",
    "feedouble.com",
    "feedouble.net",
    "filmetricsasia.com",
    "fitness-video.net",
    "fiuxy.com",
    "fiverr.com",
    "floating-share-buttons.com",
    "forex-procto.ru",
    "forsex.info",
    "forum69.info",
    "foxtechfpv.com",
    "free-floating-buttons.com",
    "free-share-buttons.com",
    "free-social-buttons.com",
    "freeseedsonline.com",
    "freewhatsappload.com",
    "fsalas.com",
    "ftns.ru",
    "fungirlsgames.net",
    "funnypica.com",
    "gap-search.com",
    "generalporn.org",
    "germes-trans.com",
    "get-free-social-traffic.com",
    "get-free-traffic-now.com",
    "getyourprofit.net",
    "ghazel.ru",
    "girlporn.ru",
    "gkvector.ru",
    "glavprofit.ru",
    "gobongo.info",
    "goodprotein.ru",
    "googlsucks.com",
    "gototal.co.nz",
    "guardlink.org",
    "guge.io",
    "h2monline.com",
    "handicapvantoday.com",
    "hazardky.net",
    "hol.es",
    "hongfanji.com",
    "hostcritique.com",
    "hostingclub.lk",
    "houseofrose.com",
    "how-to-earn-quick-money.com",
    "howopen.ru",
    "howtostopreferralspam.eu",
    "hulfingtonpost.com",
    "humanorightswatch.org",
    "hundejo.com",
    "hvd-store.com",
    "ico.re",
    "ifmo.ru",
    "igru-xbox.net",
    "iloveitaly.ro",
    "iloveitaly.ru",
    "ilovevitaly.co",
    "ilovevitaly.com",
    "ilovevitaly.info",
    "ilovevitaly.org",
    "ilovevitaly.ro",
    "ilovevitaly.ru",
    "iminent.com",
    "imperiafilm.ru",
    "inboxdollars.com",
    "intermesh.net",
    "investpamm.ru",
    "invivo.hu",
    "iskalko.ru",
    "ispaniya-costa-blanca.ru",
    "istanbulit.com",
    "itronics.ca",
    "itsdp3.com",
    "jasonpartington.com",
    "jjbabskoe.ru",
    "joinandplay.me",
    "joingames.org",
    "justprofit.xyz",
    "jwss.cc",
    "kabbalah-red-bracelets.com",
    "kambasoft.com",
    "kazrent.com",
    "kino-fun.ru",
    "kino-key.info",
    "kinopolet.net",
    "knigonosha.net",
    "konkursov.net",
    "kosova.de",
    "laxdrills.com",
    "leadwayau.com",
    "littleberry.ru",
    "livefixer.com",
    "lmrauction.com",
    "lol-smurfs.com",
    "lombia.co",
    "lombia.com",
    "lumb.co",
    "luxup.ru",
    "m1media.net",
    "mainlinehobby.net",
    "make-money-online.com",
    "makemoneyonline.com",
    "malls.com",
    "maridan.com.au",
    "masterseek.com",
    "maxthon.com",
    "mebelcomplekt.ru",
    "mebeldekor.com.au",
    "med-zdorovie.com.au",
    "medi-fitt.hu",
    "medicovi.com",
    "medispainstitute.com.au",
    "meendo-free-traffic.ga",
    "mericanmopedstore.com",
    "micasainvest.com",
    "microsearch.ru",
    "minegam.com",
    "mir-betting.ru",
    "mirobuvi.com.au",
    "mirtorrent.net",
    "mobilemedia.md",
    "motion-interactive.com",
    "mountainstream.ms",
    "moyakuhnia.ru",
    "mozilla.org",
    "mpftpupload.com",
    "mrmoneymustache.com",
    "muscle-factory.com.au",
    "musicprojectfoundation.com",
    "myftpupload.com",
    "myprintscreen.com",
    "nate.com",
    "net.ua",
    "niki-mlt.ru",
    "notaria-desalas.com",
    "noumeda.com",
    "novosti-hi-tech.ru",
    "o-o-6-o-o.com",
    "o-o-6-o-o.ru",
    "o-o-8-o-o.com",
    "o-o-8-o-o.ru",
    "od.au",
    "od.ua",
    "ok.ru",
    "online-hit.info",
    "onlywoman.org",
    "ooo-olni.ru",
    "openfrost.com",
    "openmediasoft.com",
    "osoznanie-narkotikam.net",
    "ozas.net",
    "palvira.com.au",
    "paparazzistudios.com.au",
    "petrovka-online.com",
    "photokitchendesign.com",
    "pizza-tycoon.com",
    "pochemychka.net",
    "poisk-zakona.ru",
    "porn-w.org",
    "pornhub-forum.ga",
    "pornhub-ru.com",
    "pornoforadult.com",
    "powitania.pl",
    "pozdravleniya-c.ru",
    "priceg.com",
    "pricheski-video.com",
    "princeadvantagesales.com",
    "prlog.ru",
    "producm.ru",
    "prodvigator.au",
    "prodvigator.ua",
    "prohoster.info",
    "prointer.net.au",
    "promoforum.ru",
    "psa48.ru",
    "putitin.me",
    "pyrodesigns.com.au",
    "qitt.ru",
    "qualitymarketzone.com",
    "qwesa.ru",
    "rankings-analytics.com",
    "ranksonic.info",
    "ranksonic.org",
    "rapidgator-porn.ga",
    "rcb101.ru",
    "realting-moscow.ru",
    "rednise.com",
    "rentalmaty.kz",
    "resellerclub.com",
    "retreatia.com",
    "reversing.cc",
    "rightenergysolutions.com.au",
    "ro",
    "roleforum.ru",
    "rospromtest.ru",
    "ru",
    "sady-urala.ru",
    "salutmontreal.com",
    "sanjosestartups.com",
    "sashagreyblog.ga",
    "savetubevideo.com",
    "screentoolkit.com",
    "search-error.com",
    "searchlock.com",
    "semalt.com",
    "semaltmedia.com",
    "seo-platform.com",
    "seo-smm.kz",
    "seoanalyses.com",
    "seoexperimenty.ru",
    "seokicks.de",
    "seopub.net",
    "setioweb.com",
    "sexyali.com",
    "sharebutton.net",
    "sharebutton.to",
    "sibecoprom.ru",
    "simple-share-buttons.com",
    "siteripz.net",
    "sitevaluation.com",
    "sitevaluation.org",
    "sklad-24.ru",
    "sledstvie-veli.net",
    "slftsdybbg.ru",
    "slkrm.ru",
    "smailik.org",
    "soaksoak.ru",
    "social-buttons.com",
    "socialseet.ru",
    "softomix.com",
    "softomix.net",
    "softomix.org",
    "softomix.ru",
    "sohoindia.net",
    "solnplast.ru",
    "sonyelektronik.com",
    "sosdepotdebilan.com",
    "soundfrost.org",
    "spravka130.ru",
    "srecorder.com",
    "steame.ru",
    "streha-metalko.si",
    "success-seo.com",
    "superiends.org",
    "supernew.org",
    "susanholtphotography.com",
    "swagbucks.com",
    "taihouse.ru",
    "tasteidea.com",
    "tastyfoodideas.com",
    "tattooha.com",
    "teastory.co",
    "tedxrj.com",
    "thecoral.com.br",
    "theguardlan.com",
    "thepokertimer.com",
    "tomck.com",
    "torontoplumbinggroup.com",
    "torture.ml",
    "touchmods.fr",
    "traffic-paradise.org",
    "traffic2money.com",
    "trafficmonetize.org",
    "trafficmonetizer.org",
    "twincitiescarservice.com",
    "uasb.ru",
    "uni.me",
    "uzungil.com",
    "vapmedia.org",
    "video--production.com",
    "video-woman.com",
    "videofrost.com",
    "videofrost.net",
    "videos-for-your-business.com",
    "viel.su",
    "viktoria-center.ru",
    "vodaodessa.com",
    "vodkoved.ru",
    "web-betting.ru",
    "webmaster-traffic.com",
    "webmonetizer.net",
    "website-errors-scanner.com",
    "websites-reviews.com",
    "websocial.me",
    "williamrobsonproperty.com",
    "wmasterlead.com",
    "work-from-home-earn-money-online.com",
    "xn----7sbho2agebbhlivy.xn--p1ai",
    "xn----8sbhefaln6acifdaon5c6f4axh.xn--p1ai",
    "xn--80aanaardaperhcem4a6i.com",
    "xn--80adaggc5bdhlfamsfdij4p7b.xn--p1ai",
    "xn--80adgcaax6acohn6r.xn--p1ai",
    "xn--90acenikpebbdd4f6d.xn--p1ai",
    "xn--c1acygb.xn--p1ai",
    "xz618.com",
    "ykecwqlixx.ru",
    "youporn-forum.ga",
    "youporn-ru.com",
    "yourserverisdown.com",
    "youtubedownload.org",
    "yurgorod.ru",
    "zastroyka.org",
    "zazagames.org",
    "zverokruh-shop.cz"
]
